dump.vcd
$date
	Tue Dec  9 12:11:24 2025
$end
$version
	QuestaSim Version 10.7d
$end
$timescale
	1ps
$end

$scope module uvm_root $end
$upscope $end

$scope module top $end
$var reg 1 ! reset_n_int $end
$var wire 1 " ck_t_int $end
$var wire 1 # ck_c_int $end
$var wire 1 $ wck_t_int [1] $end
$var wire 1 % wck_t_int [0] $end
$var wire 1 & wck_c_int [1] $end
$var wire 1 ' wck_c_int [0] $end
$var wire 1 ( cs_int $end
$var wire 1 ) ca_int [6] $end
$var wire 1 * ca_int [5] $end
$var wire 1 + ca_int [4] $end
$var wire 1 , ca_int [3] $end
$var wire 1 - ca_int [2] $end
$var wire 1 . ca_int [1] $end
$var wire 1 / ca_int [0] $end
$var wire 1 0 rdqs_t_int [1] $end
$var wire 1 1 rdqs_t_int [0] $end
$var wire 1 2 rdqs_c_int [1] $end
$var wire 1 3 rdqs_c_int [0] $end
$var wire 1 4 dmi_int [1] $end
$var wire 1 5 dmi_int [0] $end
$var wire 1 6 zq_int $end
$var wire 1 7 dq_int [15] $end
$var wire 1 8 dq_int [14] $end
$var wire 1 9 dq_int [13] $end
$var wire 1 : dq_int [12] $end
$var wire 1 ; dq_int [11] $end
$var wire 1 < dq_int [10] $end
$var wire 1 = dq_int [9] $end
$var wire 1 > dq_int [8] $end
$var wire 1 ? dq_int [7] $end
$var wire 1 @ dq_int [6] $end
$var wire 1 A dq_int [5] $end
$var wire 1 B dq_int [4] $end
$var wire 1 C dq_int [3] $end
$var wire 1 D dq_int [2] $end
$var wire 1 E dq_int [1] $end
$var wire 1 F dq_int [0] $end
$upscope $end

$scope begin uvm_pkg $end
$var parameter 32 G UVM_HDL_MAX_WIDTH $end
$var parameter 32 H UVM_STREAMBITS $end
$var parameter 32 I UVM_RADIX $end
$var parameter 32 J UVM_MACRO_NUMFLAGS $end
$var parameter 32 K UVM_DEFAULT $end
$var parameter 32 L UVM_ALL_ON $end
$var parameter 32 M UVM_FLAGS_ON $end
$var parameter 32 N UVM_FLAGS_OFF $end
$var parameter 32 O UVM_COPY $end
$var parameter 32 P UVM_NOCOPY $end
$var parameter 32 Q UVM_COMPARE $end
$var parameter 32 R UVM_NOCOMPARE $end
$var parameter 32 S UVM_PRINT $end
$var parameter 32 T UVM_NOPRINT $end
$var parameter 32 U UVM_RECORD $end
$var parameter 32 V UVM_NORECORD $end
$var parameter 32 W UVM_PACK $end
$var parameter 32 X UVM_NOPACK $end
$var parameter 32 Y UVM_PHYSICAL $end
$var parameter 32 Z UVM_ABSTRACT $end
$var parameter 32 [ UVM_READONLY $end
$var parameter 32 \ UVM_NODEFPRINT $end
$var parameter 32 ] UVM_MACRO_EXTRAS $end
$var parameter 32 ^ UVM_FLAGS $end
$var parameter 32 _ UVM_UNPACK $end
$var parameter 32 ` UVM_CHECK_FIELDS $end
$var parameter 32 a UVM_END_DATA_EXTRA $end
$var parameter 32 b UVM_START_FUNCS $end
$var parameter 32 c UVM_SET $end
$var parameter 32 d UVM_SETINT $end
$var parameter 32 e UVM_SETOBJ $end
$var parameter 32 f UVM_SETSTR $end
$var parameter 32 g UVM_END_FUNCS $end
$var parameter 32 h UVM_STR_CRC_POLYNOMIAL $end
$var parameter 32 i UVM_STDOUT $end
$var parameter 32 j UVM_LINE_WIDTH $end
$var parameter 32 k UVM_NUM_LINES $end
$var parameter 32 l UVM_SMALL_STRING $end
$var parameter 32 m UVM_LARGE_STRING $end
$var reg 1 n uvm_start_uvm_declarations $end
$var integer 32 o uvm_global_random_seed $end
$var integer 32 p UVM_UNBOUNDED_CONNECTIONS $end

$scope function uvm_hdl_check_path $end
$var integer 32 q uvm_hdl_check_path $end
$upscope $end

$scope function uvm_hdl_deposit $end
$var integer 32 r uvm_hdl_deposit $end
$var reg 1024 s value [1023:0] $end
$upscope $end

$scope function uvm_hdl_force $end
$var integer 32 t uvm_hdl_force $end
$var reg 1024 u value [1023:0] $end
$upscope $end

$scope task uvm_hdl_force_time $end
$var reg 1024 v value [1023:0] $end
$var time 64 w force_time $end
$upscope $end

$scope function uvm_hdl_release_and_read $end
$var integer 32 x uvm_hdl_release_and_read $end
$var reg 1024 y value [1023:0] $end
$upscope $end

$scope function uvm_hdl_release $end
$var integer 32 z uvm_hdl_release $end
$upscope $end

$scope function uvm_hdl_read $end
$var integer 32 { uvm_hdl_read $end
$var reg 1024 | value [1023:0] $end
$upscope $end

$scope function uvm_dpi_get_next_arg_c $end
$var integer 32 } init $end
$upscope $end

$scope function uvm_dpi_get_tool_name_c $end
$upscope $end

$scope function uvm_dpi_get_tool_version_c $end
$upscope $end

$scope function uvm_dpi_get_next_arg $end
$var integer 32 ~ init $end
$upscope $end

$scope function uvm_dpi_get_tool_name $end
$upscope $end

$scope function uvm_dpi_get_tool_version $end
$upscope $end

$scope function uvm_dpi_regcomp $end
$upscope $end

$scope function uvm_dpi_regexec $end
$var integer 32 !! uvm_dpi_regexec $end
$upscope $end

$scope function uvm_dpi_regfree $end
$upscope $end

$scope function uvm_re_match $end
$var integer 32 "! uvm_re_match $end
$upscope $end

$scope function uvm_dump_re_cache $end
$upscope $end

$scope function uvm_glob_to_re $end
$upscope $end

$scope function uvm_revision_string $end
$upscope $end

$scope function uvm_radix_to_string $end
$var integer 32 #! radix $end
$upscope $end

$scope function uvm_instance_scope $end
$var reg 8 $! c [7:0] $end
$var integer 32 %! pos $end
$upscope $end

$scope function uvm_oneway_hash $end
$var integer 32 &! uvm_oneway_hash $end
$var integer 32 '! seed $end
$var reg 1 (! msb $end
$var reg 8 )! current_byte [7:0] $end
$var reg 32 *! crc1 [31:0] $end
$upscope $end

$scope function uvm_create_random_seed $end
$var integer 32 +! uvm_create_random_seed $end
$upscope $end

$scope function uvm_object_value_str $end
$upscope $end

$scope function uvm_leaf_scope $end
$var reg 8 ,! scope_separator [7:0] $end
$var reg 8 -! bracket_match [7:0] $end
$var integer 32 .! pos $end
$var integer 32 /! bmatches $end
$upscope $end

$scope function uvm_bitstream_to_string $end
$var reg 4096 0! value [4095:0] $end
$var integer 32 1! size $end
$var integer 32 2! radix $end
$upscope $end

$scope function uvm_integral_to_string $end
$var reg 64 3! value [63:0] $end
$var integer 32 4! size $end
$var integer 32 5! radix $end
$upscope $end

$scope function uvm_vector_to_string $end
$var reg 4096 6! value [4095:0] $end
$var integer 32 7! size $end
$var integer 32 8! radix $end
$upscope $end

$scope function uvm_get_array_index_int $end
$var integer 32 9! uvm_get_array_index_int $end
$var reg 1 :! is_wildcard $end
$var integer 32 ;! i $end
$upscope $end

$scope function uvm_get_array_index_string $end
$var reg 1 <! is_wildcard $end
$var integer 32 =! i $end
$upscope $end

$scope function uvm_is_array $end
$var reg 1 >! uvm_is_array $end
$upscope $end

$scope function uvm_has_wildcard $end
$upscope $end

$scope function m_uvm_string_queue_join $end
$upscope $end

$scope task run_test $end
$upscope $end

$scope function global_stop_request $end
$upscope $end

$scope function set_global_timeout $end
$var time 64 ?! timeout $end
$var reg 1 @! overridable $end
$upscope $end

$scope function set_global_stop_timeout $end
$var time 64 A! timeout $end
$upscope $end

$scope function uvm_get_report_object $end
$upscope $end

$scope function uvm_report_enabled $end
$var integer 32 B! uvm_report_enabled $end
$var integer 32 C! verbosity $end
$var reg 2 D! severity [1:0] $end
$upscope $end

$scope function uvm_report $end
$var reg 2 E! severity [1:0] $end
$var integer 32 F! verbosity $end
$var integer 32 G! line $end
$var reg 1 H! report_enabled_checked $end
$upscope $end

$scope function m__uvm_report_dpi $end
$var integer 32 I! severity $end
$var integer 32 J! verbosity $end
$var integer 32 K! line $end
$upscope $end

$scope function uvm_report_info $end
$var integer 32 L! verbosity $end
$var integer 32 M! line $end
$var reg 1 N! report_enabled_checked $end
$upscope $end

$scope function uvm_report_warning $end
$var integer 32 O! verbosity $end
$var integer 32 P! line $end
$var reg 1 Q! report_enabled_checked $end
$upscope $end

$scope function uvm_report_error $end
$var integer 32 R! verbosity $end
$var integer 32 S! line $end
$var reg 1 T! report_enabled_checked $end
$upscope $end

$scope function uvm_report_fatal $end
$var integer 32 U! verbosity $end
$var integer 32 V! line $end
$var reg 1 W! report_enabled_checked $end
$upscope $end

$scope function uvm_process_report_message $end
$upscope $end

$scope function uvm_string_to_severity $end
$var reg 1 X! uvm_string_to_severity $end
$var reg 2 Y! sev [1:0] $end
$upscope $end

$scope function uvm_string_to_action $end
$upscope $end

$scope function set_config_int $end
$var reg 4096 Z! value [4095:0] $end
$upscope $end

$scope function set_config_object $end
$var reg 1 [! clone $end
$upscope $end

$scope function set_config_string $end
$upscope $end

$scope function uvm_is_match $end
$var reg 1 \! uvm_is_match $end
$upscope $end

$scope function uvm_string_to_bits $end
$var reg 115200 ]! uvm_string_to_bits [115199:0] $end
$upscope $end

$scope function uvm_bits_to_string $end
$var reg 115200 ^! str [115199:0] $end
$upscope $end

$scope task uvm_wait_for_nba_region $end
$var integer 32 _! nba $end
$var integer 32 `! next_nba $end
$upscope $end

$scope function uvm_split_string $end
$upscope $end

$scope function uvm_hdl_concat2string $end
$upscope $end
$upscope $end

$scope begin lpddr5_controller_pkg $end
$upscope $end

$scope begin std $end
$upscope $end
$enddefinitions $end
#0
$dumpvars
x!
0<!
0>!
0X!
b0 Y!
bx ]!
bx ^!
bx s
bx u
bx v
bx y
bx |
1n
1(!
b1110001 )!
b11110011111110100110011101110111 *!
bx 0!
b1 3!
bx 6!
0:!
0@!
b0 D!
b0 E!
0H!
0N!
0Q!
0T!
0W!
bx Z!
0[!
0\!
b10000000000 G
b1000000000000 H
b1111000000000000000000000000 I
b10001 J
b10101010101 K
b101010101 L
b101010101 M
b0 N
b1 O
b10 P
b100 Q
b1000 R
b10000 S
b100000 T
b1000000 U
b10000000 V
b100000000 W
b1000000000 X
b10000000000000 Y
b100000000000000 Z
b1000000000000000 [
b10000000000000000 \
b100000000000000000 ]
b100000000000000001 ^
b100000000000000010 _
b100000000000000011 `
b100000000000000100 a
b100000000000000101 b
b100000000000000110 c
b100000000000000110 d
b100000000000000111 e
b100000000000001000 f
b100000000000001000 g
b100110000010001110110110110 h
b1 i
b1111000 j
b1111000 k
b1110111111 l
b11100000111111111 m
b0 #!
b101110 ,!
b0 -!
b10100 .!
b11111111111111111111111111111111 /!
b0 =!
b0 q
b0 r
b0 t
b0 x
b0 z
b0 {
b0 }
b0 ~
b0 !!
b0 "!
b10101111111110001010110000110 o
b101110 $!
b111 %!
b10011110100101110001101010010010 &!
b10101111111110001010110000110 '!
b11011011100111100011101100100100 +!
b0 1!
b0 2!
b100000 4!
b10000000000000000000000000 5!
b0 7!
b0 8!
b0 9!
b0 ;!
b0 B!
b111110100 C!
b0 F!
b0 G!
b0 I!
b0 J!
b0 K!
b0 L!
b0 M!
b0 O!
b0 P!
b0 R!
b0 S!
b0 U!
b0 V!
b100011 _!
b100011 `!
b11111111111111111111111111111111 p
bx w
bx ?!
bx A!
z"
z#
z%
z$
z'
z&
z(
z/
z.
z-
z,
z+
z*
z)
z1
z0
z3
z2
z5
z4
z6
zF
zE
zD
zC
zB
zA
z@
z?
z>
z=
z<
z;
z:
z9
z8
z7
$end
#20000000000
0!
#20489146000
1!
#30350896000
b100100 `!
b100100 _!
#30353896250
b0 /!
b10 .!
b1 .!
b0 .!
b110 .!
b101 .!
b100 .!
b11 .!
b11111111111111111111111111111111 /!
b11 0!
b11 1!
b111000000000000000000000000 2!
b0 /!
b111 .!
b110 .!
b101 .!
b100 .!
b11 .!
b11111111111111111111111111111111 /!
b101101110001110000 0!
b10010 1!
b0 /!
b110 .!
b101 .!
b100 .!
b11 .!
b11111111111111111111111111111111 /!
b110011 0!
b1010 1!
b0 /!
b110 .!
b101 .!
b100 .!
b11 .!
b11111111111111111111111111111111 /!
b10000 0!
b100000 1!
b0 /!
b1111 .!
b1110 .!
b1101 .!
b1100 .!
b1011 .!
b1010 .!
b1001 .!
b1000 .!
b111 .!
b110 .!
b101 .!
b100 .!
b11 .!
b11111111111111111111111111111111 /!
b110101 0!
b1000 1!
b0 /!
b1010 .!
b1001 .!
b1000 .!
b111 .!
b110 .!
b101 .!
b100 .!
b11 .!
b11111111111111111111111111111111 /!
b1100111110111000 0!
b10000 1!
b0 /!
b1010 .!
b1001 .!
b1000 .!
b111 .!
b110 .!
b101 .!
b100 .!
b11 .!
b11111111111111111111111111111111 /!
b100101 `!
b10011110100101110001101010010101 +!
b10011110100101110001101010011000 +!
b100101 _!
#30356146250
b0 /!
b10 .!
b1 .!
b0 .!
b110 .!
b101 .!
b100 .!
b11 .!
b11111111111111111111111111111111 /!
b11 0!
b11 1!
b0 /!
b111 .!
b110 .!
b101 .!
b100 .!
b11 .!
b11111111111111111111111111111111 /!
b101101110001110000 0!
b10010 1!
b0 /!
b110 .!
b101 .!
b100 .!
b11 .!
b11111111111111111111111111111111 /!
b110011 0!
b1010 1!
b0 /!
b110 .!
b101 .!
b100 .!
b11 .!
b11111111111111111111111111111111 /!
b10000 0!
b100000 1!
b0 /!
b1111 .!
b1110 .!
b1101 .!
b1100 .!
b1011 .!
b1010 .!
b1001 .!
b1000 .!
b111 .!
b110 .!
b101 .!
b100 .!
b11 .!
b11111111111111111111111111111111 /!
b10101111 0!
b1000 1!
b0 /!
b1010 .!
b1001 .!
b1000 .!
b111 .!
b110 .!
b101 .!
b100 .!
b11 .!
b11111111111111111111111111111111 /!
b1111100111010000 0!
b10000 1!
b0 /!
b1010 .!
b1001 .!
b1000 .!
b111 .!
b110 .!
b101 .!
b100 .!
b11 .!
b11111111111111111111111111111111 /!
#30359896000
b100110 `!
b10011110100101110001101010011100 +!
b10011110100101110001101010100001 +!
b100110 _!
#30363646000
b0 /!
b10 .!
b1 .!
b0 .!
b110 .!
b101 .!
b100 .!
b11 .!
b11111111111111111111111111111111 /!
b11 0!
b11 1!
b0 /!
b111 .!
b110 .!
b101 .!
b100 .!
b11 .!
b11111111111111111111111111111111 /!
b101101110001110000 0!
b10010 1!
b0 /!
b110 .!
b101 .!
b100 .!
b11 .!
b11111111111111111111111111111111 /!
b110011 0!
b1010 1!
b0 /!
b110 .!
b101 .!
b100 .!
b11 .!
b11111111111111111111111111111111 /!
b10000 0!
b100000 1!
b0 /!
b1111 .!
b1110 .!
b1101 .!
b1100 .!
b1011 .!
b1010 .!
b1001 .!
b1000 .!
b111 .!
b110 .!
b101 .!
b100 .!
b11 .!
b11111111111111111111111111111111 /!
b1011110 0!
b1000 1!
b0 /!
b1010 .!
b1001 .!
b1000 .!
b111 .!
b110 .!
b101 .!
b100 .!
b11 .!
b11111111111111111111111111111111 /!
b1110110001000010 0!
b10000 1!
b0 /!
b1010 .!
b1001 .!
b1000 .!
b111 .!
b110 .!
b101 .!
b100 .!
b11 .!
b11111111111111111111111111111111 /!
#30382958500
b100111 `!
b100111 _!
#30383058500
b101000 `!
b101001 `!
b101000 _!
b101001 _!
b101010 `!
b101011 `!
b101010 _!
b101011 _!
b11011011100111100011101100110101 +!
b1011110111101101001000010100101 +!
b11001011001011110010100110001 +!
b1000001001101110010110111101000 +!
b10100001101001111010101110010 +!
b1101011111100111100100001101011 +!
b10001101111011110010011010111011 +!
b11011001100111110010010101111100 +!
b110001111101100000111000111001 +!
b1010001010111001101100001111100 +!
b11111010000011011000001000001110 +!
b10010000000001110000011010110 +!
b101111010111001001000111001101 +!
b10011000110011001000010101010001 +!
b1111000000100100010001010100000 +!
b1110110100001010101000001110000 +!
b11110100110001011101101000101001 +!
b100001100011001100011011110110 +!
b1011000010011111001100001111100 +!
b10001011010000000010101101110001 +!
b11100101100101010011111101011100 +!
b11001111010000100101111000101010 +!
b111001111100110110110010100000 +!
b10010110011001011100100110010010 +!
b1111010110111010100101000 +!
b11101011011110110111011101000001 +!
b101100101111100110010101100111 +!
b11000001101011111101101011000110 +!
b100100101100101011100010011100 +!
b1100110100001011100010100100010 +!
b11111110001101111010010001001100 +!
b10101101010100000001000000100000 +!
b11100100010101000100001010000100 +!
b1100000111011111100011100011111 +!
b1001110101001111110110011010000 +!
b11100101000000010101011100000101 +!
b10001000101110101010000110010100 +!
b11011011100111100011101101000111 +!
b1011110111101101001000010110111 +!
b11001011001011110010101000011 +!
b1000001001101110010110111111010 +!
b10100001101001111010110000100 +!
b1101011111100111100100001111101 +!
b10001101111011110010011011001101 +!
b11011001100111110010010110001110 +!
b110001111101100000111001001011 +!
b1010001010111001101100010001110 +!
b11111010000011011000001000100000 +!
b10010000000001110000011101000 +!
b101111010111001001000111011111 +!
b10011000110011001000010101100011 +!
b1111000000100100010001010110010 +!
b1110110100001010101000010000010 +!
b11110100110001011101101000111011 +!
b100001100011001100011100001000 +!
b1011000010011111001100010001110 +!
b10001011010000000010101110000011 +!
b11100101100101010011111101101110 +!
b11001111010000100101111000111100 +!
b111001111100110110110010110010 +!
b10010110011001011100100110100100 +!
b1111010110111010100111010 +!
b11101011011110110111011101010011 +!
b101100101111100110010101111001 +!
b11000001101011111101101011011000 +!
b100100101100101011100010101110 +!
b1100110100001011100010100110100 +!
b11111110001101111010010001011110 +!
b10101101010100000001000000110010 +!
b11100100010101000100001010010110 +!
b1100000111011111100011100110001 +!
b1001110101001111110110011100010 +!
b11100101000000010101011100010111 +!
b10001000101110101010000110100110 +!
b11011011100111100011101101011010 +!
b1011110111101101001000011001010 +!
b11001011001011110010101010110 +!
b1000001001101110010111000001101 +!
b10100001101001111010110010111 +!
b1101011111100111100100010010000 +!
b10001101111011110010011011100000 +!
b110110011001111